<svg xmlns="http://www.w3.org/2000/svg" xmlns:xlink="http://www.w3.org/1999/xlink" width="263" height="88.295" viewBox="0 0 263 88.295">
  <defs>
    <radialGradient id="radial-gradient" cx="0.5" cy="0.5" r="0.5" gradientUnits="objectBoundingBox">
      <stop offset="0" stop-color="#96d9f2"/>
      <stop offset="1" stop-color="#0060c1"/>
    </radialGradient>
  </defs>
  <g id="Group_323" data-name="Group 323" transform="translate(-858 -142.705)">
    <text id="AEPL" transform="translate(920.87 188.705)" fill="#4d4f5c" font-size="50" font-family="Optima-Bold, Optima" font-weight="700"><tspan x="0" y="0">AEPL</tspan></text>
    <g id="Group_318" data-name="Group 318" transform="translate(866 148.324)">
      <rect id="Rectangle_1525" data-name="Rectangle 1525" width="44.826" height="44.826" rx="12" transform="translate(0 0)" fill="url(#radial-gradient)"/>
      <g id="Group_317" data-name="Group 317" transform="translate(12.493 9.553)">
        <path id="Path_581" data-name="Path 581" d="M121.375,254.529a9.629,9.629,0,0,0,6.9-2.87,10.57,10.57,0,0,0,.894-1.029,6,6,0,0,1-2.6.6,5.806,5.806,0,0,1-4.17-1.733,5.918,5.918,0,0,1-1.733-4.17,4.539,4.539,0,0,0-9.071-.244,9.762,9.762,0,0,0,9.775,9.45Z" transform="translate(-111.6 -229.129)" fill="#fff"/>
        <path id="Path_582" data-name="Path 582" d="M136.728,80.4a5.918,5.918,0,0,1,1.733,4.17,4.519,4.519,0,0,0,7.717,3.2,4.456,4.456,0,0,0,1.246-2.329c.027-.244.054-.514.081-.758V84c0-4.278-4.739-9.748-8.178-13.729-.569-.677-1.11-1.3-1.6-1.868-.487.6-1.029,1.219-1.6,1.868-2.356,2.708-5.307,6.147-6.932,9.4a5.8,5.8,0,0,1,3.3-1A6,6,0,0,1,136.728,80.4Z" transform="translate(-128.009 -68.4)" fill="#fff"/>
      </g>
    </g>
    <text id="Äser_Engineering_Pvt._Ltd" data-name="Äser Engineering Pvt. Ltd" transform="translate(858 224)" fill="#999a9b" font-size="24" font-family="Optima-Bold, Optima" font-weight="700"><tspan x="0" y="0">Äser Engineering Pvt. Ltd</tspan></text>
  </g>
</svg>
